team-demo-code/no_bug_pipelined_picoblaze_hdl/transcript
# vsim -c work.alt_rojo_tb work.blockram work.blockram_sv_unit work.disassembler work.disassembler_sv_unit work.kcpsm_register_sv_unit work.kcpsm_rojo_sv_unit work.kcpsmx work.kcpsmx3_idu_sv_unit work.kcpsmx3_inc work.kcpsmx_alu work.kcpsmx_alu_sv_unit work.kcpsmx_idu work.kcpsmx_register work.kcpsmx_scratch work.kcpsmx_scratch_sv_unit work.kcpsmx_stack work.kcpsmx_stack_sv_unit work.rojoblaze_defs work.tb_testprogs_sv_unit 
# Start time: 14:18:39 on Dec 06,2022
# ** Note: (vsim-3812) Design is being optimized...
# //  Questa Intel Starter FPGA Edition-64
# //  Version 2022.1 linux_x86_64 Jan 29 2022
# //
# //  Copyright 1991-2022 Mentor Graphics Corporation
# //  All Rights Reserved.
# //
# //  QuestaSim and its associated documentation contain trade
# //  secrets and commercial or financial information that are the property of
# //  Mentor Graphics Corporation and are privileged, confidential,
# //  and exempt from disclosure under the Freedom of Information Act,
# //  5 U.S.C. Section 552. Furthermore, this information
# //  is prohibited from disclosure under the Trade Secrets Act,
# //  18 U.S.C. Section 1905.
# //
# Loading sv_std.std
# Loading work.kcpsmx3_inc(fast)
# Loading work.rojoblaze_defs(fast)
# Loading work.disassembler_sv_unit(fast)
# Loading work.kcpsmx_scratch_sv_unit(fast)
# Loading work.kcpsmx_stack_sv_unit(fast)
# Loading work.kcpsmx_alu_sv_unit(fast)
# Loading work.kcpsm_register_sv_unit(fast)
# Loading work.kcpsmx3_idu_sv_unit(fast)
# Loading work.blockram_sv_unit(fast)
# Loading work.kcpsm_rojo_sv_unit(fast)
# Loading work.tb_testprogs_sv_unit(fast)
# Loading work.alt_rojo_tb(fast)
# Loading work.blockram(fast)
# Loading work.disassembler(fast)
# Loading work.kcpsmx(fast)
# Loading work.kcpsmx_alu(fast)
# Loading work.kcpsmx_idu(fast)
# Loading work.kcpsmx_register(fast)
# Loading work.kcpsmx_scratch(fast)
# Loading work.kcpsmx_stack(fast)
# ---------------------------------------------------------------------------------------------------------------------------------------------------------------------------------
# [T: 0 ] || OP: Invalid Instruction || ZERO: x || CARRY: 0 || SHIFT_BIT: x || SHIFT_OP:  || REG_DATA: x || ADD_SUB: xx || OP1: xx || OP2: xx || SCR_WR_EN: x || RG_WR_EN: x || WR_SRB: x || ZR_CR_WR_EN: x x
# ++++++++++++++++++++++++++++++++++++++++++++++++++++++++++++++++++++++++++++++++++++++++++++++++++
# Running test file alu_test.mem
# ++++++++++++++++++++++++++++++++++++++++++++++++++++++++++++++++++++++++++++++++++++++++++++++++++
# [T: 5 ] || OP: Invalid Instruction || ZERO: x || CARRY: 0 || SHIFT_BIT: x || SHIFT_OP:  || REG_DATA: x || ADD_SUB: xx || OP1: xx || OP2: xx || SCR_WR_EN: 0 || RG_WR_EN: 0 || WR_SRB: 0 || ZR_CR_WR_EN: 0 0
# [T: 15 ] || OP: Invalid Instruction || ZERO: 0 || CARRY: 0 || SHIFT_BIT: x || SHIFT_OP:  || REG_DATA: 0 || ADD_SUB: 00 || OP1: 00 || OP2: 00 || SCR_WR_EN: 0 || RG_WR_EN: 0 || WR_SRB: 0 || ZR_CR_WR_EN: 0 0
# ---------------------------------------------------------------------------------------------------------------------------------------------------------------------------------
# [T: 75 ] || OP: LOAD s3,00  || ZERO: 0 || CARRY: 0 || SHIFT_BIT: x || SHIFT_OP:  || REG_DATA: x || ADD_SUB: xx || OP1: xx || OP2: xx || SCR_WR_EN: 0 || RG_WR_EN: 0 || WR_SRB: 0 || ZR_CR_WR_EN: 0 0
# ---------------------------------------------------------------------------------------------------------------------------------------------------------------------------------
# [T: 85 ] || OP: ADD  s3,00  || ZERO: 0 || CARRY: 0 || SHIFT_BIT: 0 || SHIFT_OP: SA || REG_DATA: 0 || ADD_SUB: xx || OP1: xx || OP2: 00 || SCR_WR_EN: 0 || RG_WR_EN: 1 || WR_SRB: 0 || ZR_CR_WR_EN: 0 0
# ---------------------------------------------------------------------------------------------------------------------------------------------------------------------------------
# [T: 95 ] || OP: LOAD s0,s0  || ZERO: 0 || CARRY: 0 || SHIFT_BIT: 0 || SHIFT_OP: SA || REG_DATA: 0 || ADD_SUB: 00 || OP1: 00 || OP2: 00 || SCR_WR_EN: 0 || RG_WR_EN: 1 || WR_SRB: 0 || ZR_CR_WR_EN: 1 0
# ---------------------------------------------------------------------------------------------------------------------------------------------------------------------------------
# [T: 105 ] || OP: JUMP 004  || ZERO: 1 || CARRY: 0 || SHIFT_BIT: 0 || SHIFT_OP: SA || REG_DATA: x || ADD_SUB: xx || OP1: xx || OP2: xx || SCR_WR_EN: 0 || RG_WR_EN: 1 || WR_SRB: 0 || ZR_CR_WR_EN: 0 0
# ---------------------------------------------------------------------------------------------------------------------------------------------------------------------------------
# [T: 115 ] || OP: LOAD s3,00  || ZERO: 1 || CARRY: 0 || SHIFT_BIT: x || SHIFT_OP: RR_SLX || REG_DATA: 4 || ADD_SUB: xx || OP1: xx || OP2: 04 || SCR_WR_EN: 0 || RG_WR_EN: 0 || WR_SRB: 0 || ZR_CR_WR_EN: 0 0
# [T: 125 ] || OP: LOAD s3,00  || ZERO: 1 || CARRY: 0 || SHIFT_BIT: 0 || SHIFT_OP: SA || REG_DATA: 0 || ADD_SUB: 00 || OP1: 00 || OP2: 00 || SCR_WR_EN: 0 || RG_WR_EN: 1 || WR_SRB: 0 || ZR_CR_WR_EN: 0 0
# ---------------------------------------------------------------------------------------------------------------------------------------------------------------------------------
# [T: 135 ] || OP: ADD  s3,00  || ZERO: 1 || CARRY: 0 || SHIFT_BIT: 0 || SHIFT_OP: SA || REG_DATA: 0 || ADD_SUB: 00 || OP1: 00 || OP2: 00 || SCR_WR_EN: 0 || RG_WR_EN: 1 || WR_SRB: 0 || ZR_CR_WR_EN: 0 0
# ---------------------------------------------------------------------------------------------------------------------------------------------------------------------------------
# [T: 145 ] || OP: LOAD s0,s0  || ZERO: 1 || CARRY: 0 || SHIFT_BIT: 0 || SHIFT_OP: SA || REG_DATA: 0 || ADD_SUB: 00 || OP1: 00 || OP2: 00 || SCR_WR_EN: 0 || RG_WR_EN: 1 || WR_SRB: 0 || ZR_CR_WR_EN: 1 0
# ---------------------------------------------------------------------------------------------------------------------------------------------------------------------------------
# [T: 155 ] || OP: JUMP 008  || ZERO: 1 || CARRY: 0 || SHIFT_BIT: 0 || SHIFT_OP: SA || REG_DATA: x || ADD_SUB: xx || OP1: xx || OP2: xx || SCR_WR_EN: 0 || RG_WR_EN: 1 || WR_SRB: 0 || ZR_CR_WR_EN: 0 0
# ---------------------------------------------------------------------------------------------------------------------------------------------------------------------------------
# [T: 165 ] || OP: LOAD s3,FF  || ZERO: 1 || CARRY: 0 || SHIFT_BIT: 0 || SHIFT_OP: SA || REG_DATA: 8 || ADD_SUB: xx || OP1: xx || OP2: 08 || SCR_WR_EN: 0 || RG_WR_EN: 0 || WR_SRB: 0 || ZR_CR_WR_EN: 0 0
# [T: 175 ] || OP: LOAD s3,FF  || ZERO: 1 || CARRY: 0 || SHIFT_BIT: 1 || SHIFT_OP: SC || REG_DATA: ff || ADD_SUB: ff || OP1: 00 || OP2: ff || SCR_WR_EN: 0 || RG_WR_EN: 1 || WR_SRB: 0 || ZR_CR_WR_EN: 0 0
# ---------------------------------------------------------------------------------------------------------------------------------------------------------------------------------
# [T: 185 ] || OP: ADD  s3,01  || ZERO: 1 || CARRY: 0 || SHIFT_BIT: 1 || SHIFT_OP: SC || REG_DATA: ff || ADD_SUB: fe || OP1: ff || OP2: ff || SCR_WR_EN: 0 || RG_WR_EN: 1 || WR_SRB: 0 || ZR_CR_WR_EN: 0 0
# ---------------------------------------------------------------------------------------------------------------------------------------------------------------------------------
# [T: 195 ] || OP: LOAD s0,s0  || ZERO: 1 || CARRY: 1 || SHIFT_BIT: 0 || SHIFT_OP: SA || REG_DATA: 0 || ADD_SUB: 00 || OP1: ff || OP2: 01 || SCR_WR_EN: 0 || RG_WR_EN: 1 || WR_SRB: 0 || ZR_CR_WR_EN: 1 0
# ---------------------------------------------------------------------------------------------------------------------------------------------------------------------------------
# [T: 205 ] || OP: JUMP 00C  || ZERO: 1 || CARRY: 0 || SHIFT_BIT: 1 || SHIFT_OP: SA || REG_DATA: x || ADD_SUB: xx || OP1: xx || OP2: xx || SCR_WR_EN: 0 || RG_WR_EN: 1 || WR_SRB: 0 || ZR_CR_WR_EN: 0 0
# ---------------------------------------------------------------------------------------------------------------------------------------------------------------------------------
# [T: 215 ] || OP: LOAD s3,FF  || ZERO: 1 || CARRY: 0 || SHIFT_BIT: x || SHIFT_OP: RR_SLX || REG_DATA: c || ADD_SUB: xx || OP1: xx || OP2: 0c || SCR_WR_EN: 0 || RG_WR_EN: 0 || WR_SRB: 0 || ZR_CR_WR_EN: 0 0
# [T: 225 ] || OP: LOAD s3,FF  || ZERO: 1 || CARRY: 0 || SHIFT_BIT: 1 || SHIFT_OP: SC || REG_DATA: ff || ADD_SUB: ff || OP1: 00 || OP2: ff || SCR_WR_EN: 0 || RG_WR_EN: 1 || WR_SRB: 0 || ZR_CR_WR_EN: 0 0
# ---------------------------------------------------------------------------------------------------------------------------------------------------------------------------------
# [T: 235 ] || OP: ADDCYs3,01  || ZERO: 1 || CARRY: 0 || SHIFT_BIT: 1 || SHIFT_OP: SC || REG_DATA: ff || ADD_SUB: fe || OP1: ff || OP2: ff || SCR_WR_EN: 0 || RG_WR_EN: 1 || WR_SRB: 0 || ZR_CR_WR_EN: 0 0
# ---------------------------------------------------------------------------------------------------------------------------------------------------------------------------------
# [T: 245 ] || OP: LOAD s0,s0  || ZERO: 1 || CARRY: 1 || SHIFT_BIT: 1 || SHIFT_OP: SA || REG_DATA: 1 || ADD_SUB: 01 || OP1: ff || OP2: 01 || SCR_WR_EN: 0 || RG_WR_EN: 1 || WR_SRB: 0 || ZR_CR_WR_EN: 1 0
# 
# 
#  Error: OP1 ff +/- OP2 01 should NOT equal 01, you should ignore the error if OP1 == FF && OP2 == 1 
# 
# 
# ---------------------------------------------------------------------------------------------------------------------------------------------------------------------------------
# [T: 255 ] || OP: JUMP 010  || ZERO: 0 || CARRY: 0 || SHIFT_BIT: 1 || SHIFT_OP: SA || REG_DATA: x || ADD_SUB: xx || OP1: xx || OP2: xx || SCR_WR_EN: 0 || RG_WR_EN: 1 || WR_SRB: 0 || ZR_CR_WR_EN: 0 0
# ---------------------------------------------------------------------------------------------------------------------------------------------------------------------------------
# [T: 265 ] || OP: LOAD s4,00  || ZERO: 0 || CARRY: 0 || SHIFT_BIT: 1 || SHIFT_OP: SA || REG_DATA: 10 || ADD_SUB: xx || OP1: xx || OP2: 10 || SCR_WR_EN: 0 || RG_WR_EN: 0 || WR_SRB: 0 || ZR_CR_WR_EN: 0 0
# [T: 275 ] || OP: LOAD s4,00  || ZERO: 0 || CARRY: 0 || SHIFT_BIT: 1 || SHIFT_OP: SA || REG_DATA: 0 || ADD_SUB: xx || OP1: xx || OP2: 00 || SCR_WR_EN: 0 || RG_WR_EN: 1 || WR_SRB: 0 || ZR_CR_WR_EN: 0 0
# ---------------------------------------------------------------------------------------------------------------------------------------------------------------------------------
# [T: 285 ] || OP: SUB  s4,00  || ZERO: 0 || CARRY: 0 || SHIFT_BIT: 1 || SHIFT_OP: SA || REG_DATA: 0 || ADD_SUB: 00 || OP1: 00 || OP2: 00 || SCR_WR_EN: 0 || RG_WR_EN: 1 || WR_SRB: 0 || ZR_CR_WR_EN: 0 0
# ---------------------------------------------------------------------------------------------------------------------------------------------------------------------------------
# [T: 295 ] || OP: JUMP 013  || ZERO: 0 || CARRY: 0 || SHIFT_BIT: 1 || SHIFT_OP: SA || REG_DATA: 0 || ADD_SUB: 00 || OP1: 00 || OP2: 00 || SCR_WR_EN: 0 || RG_WR_EN: 1 || WR_SRB: 0 || ZR_CR_WR_EN: 1 0
# ---------------------------------------------------------------------------------------------------------------------------------------------------------------------------------
# [T: 305 ] || OP: LOAD s4,00  || ZERO: 1 || CARRY: 0 || SHIFT_BIT: x || SHIFT_OP: RL_SRX || REG_DATA: 13 || ADD_SUB: xx || OP1: xx || OP2: 13 || SCR_WR_EN: 0 || RG_WR_EN: 0 || WR_SRB: 0 || ZR_CR_WR_EN: 0 0
# [T: 315 ] || OP: LOAD s4,00  || ZERO: 1 || CARRY: 0 || SHIFT_BIT: 0 || SHIFT_OP: SA || REG_DATA: 0 || ADD_SUB: 00 || OP1: 00 || OP2: 00 || SCR_WR_EN: 0 || RG_WR_EN: 1 || WR_SRB: 0 || ZR_CR_WR_EN: 0 0
# ---------------------------------------------------------------------------------------------------------------------------------------------------------------------------------
# [T: 325 ] || OP: SUB  s4,01  || ZERO: 1 || CARRY: 0 || SHIFT_BIT: 0 || SHIFT_OP: SA || REG_DATA: 0 || ADD_SUB: 00 || OP1: 00 || OP2: 00 || SCR_WR_EN: 0 || RG_WR_EN: 1 || WR_SRB: 0 || ZR_CR_WR_EN: 0 0
# ---------------------------------------------------------------------------------------------------------------------------------------------------------------------------------
# [T: 335 ] || OP: JUMP 016  || ZERO: 1 || CARRY: 1 || SHIFT_BIT: 0 || SHIFT_OP: SA || REG_DATA: ff || ADD_SUB: ff || OP1: 00 || OP2: 01 || SCR_WR_EN: 0 || RG_WR_EN: 1 || WR_SRB: 0 || ZR_CR_WR_EN: 1 0
# ---------------------------------------------------------------------------------------------------------------------------------------------------------------------------------
# [T: 345 ] || OP: LOAD s4,00  || ZERO: 0 || CARRY: 0 || SHIFT_BIT: 0 || SHIFT_OP: SC || REG_DATA: 16 || ADD_SUB: xx || OP1: xx || OP2: 16 || SCR_WR_EN: 0 || RG_WR_EN: 0 || WR_SRB: 0 || ZR_CR_WR_EN: 0 0
# [T: 355 ] || OP: LOAD s4,00  || ZERO: 0 || CARRY: 0 || SHIFT_BIT: 1 || SHIFT_OP: SA || REG_DATA: 0 || ADD_SUB: ff || OP1: ff || OP2: 00 || SCR_WR_EN: 0 || RG_WR_EN: 1 || WR_SRB: 0 || ZR_CR_WR_EN: 0 0
# ---------------------------------------------------------------------------------------------------------------------------------------------------------------------------------
# [T: 365 ] || OP: SUBCYs4,01  || ZERO: 0 || CARRY: 0 || SHIFT_BIT: 1 || SHIFT_OP: SA || REG_DATA: 0 || ADD_SUB: 00 || OP1: 00 || OP2: 00 || SCR_WR_EN: 0 || RG_WR_EN: 1 || WR_SRB: 0 || ZR_CR_WR_EN: 0 0
# ---------------------------------------------------------------------------------------------------------------------------------------------------------------------------------
# [T: 375 ] || OP: JUMP 019  || ZERO: 0 || CARRY: 1 || SHIFT_BIT: 1 || SHIFT_OP: SA || REG_DATA: fe || ADD_SUB: fe || OP1: 00 || OP2: 01 || SCR_WR_EN: 0 || RG_WR_EN: 1 || WR_SRB: 0 || ZR_CR_WR_EN: 1 0
# ---------------------------------------------------------------------------------------------------------------------------------------------------------------------------------
# [T: 385 ] || OP: AND  s4,s4  || ZERO: 0 || CARRY: 0 || SHIFT_BIT: 1 || SHIFT_OP: SA || REG_DATA: 19 || ADD_SUB: xx || OP1: xx || OP2: 19 || SCR_WR_EN: 0 || RG_WR_EN: 0 || WR_SRB: 0 || ZR_CR_WR_EN: 0 0
# [T: 395 ] || OP: AND  s4,s4  || ZERO: 0 || CARRY: 0 || SHIFT_BIT: 1 || SHIFT_OP: SA || REG_DATA: fe || ADD_SUB: fc || OP1: fe || OP2: fe || SCR_WR_EN: 0 || RG_WR_EN: 1 || WR_SRB: 0 || ZR_CR_WR_EN: 1 0
# ---------------------------------------------------------------------------------------------------------------------------------------------------------------------------------
# [T: 405 ] || OP: JUMP 01B  || ZERO: 0 || CARRY: 0 || SHIFT_BIT: 0 || SHIFT_OP: SA || REG_DATA: fe || ADD_SUB: fc || OP1: fe || OP2: fe || SCR_WR_EN: 0 || RG_WR_EN: 1 || WR_SRB: 0 || ZR_CR_WR_EN: 1 0
# ---------------------------------------------------------------------------------------------------------------------------------------------------------------------------------
# [T: 415 ] || OP: LOAD sA,00  || ZERO: 0 || CARRY: 0 || SHIFT_BIT: x || SHIFT_OP: RL_SRX || REG_DATA: 1b || ADD_SUB: xx || OP1: xx || OP2: 1b || SCR_WR_EN: 0 || RG_WR_EN: 0 || WR_SRB: 0 || ZR_CR_WR_EN: 0 0
# [T: 425 ] || OP: LOAD sA,00  || ZERO: 0 || CARRY: 0 || SHIFT_BIT: 0 || SHIFT_OP: SA || REG_DATA: 0 || ADD_SUB: xx || OP1: xx || OP2: 00 || SCR_WR_EN: 0 || RG_WR_EN: 1 || WR_SRB: 0 || ZR_CR_WR_EN: 0 0
# ---------------------------------------------------------------------------------------------------------------------------------------------------------------------------------
# [T: 435 ] || OP: COMPARE sA,01  || ZERO: 0 || CARRY: 0 || SHIFT_BIT: 0 || SHIFT_OP: SA || REG_DATA: 0 || ADD_SUB: 00 || OP1: 00 || OP2: 00 || SCR_WR_EN: 0 || RG_WR_EN: 1 || WR_SRB: 0 || ZR_CR_WR_EN: 0 0
# ---------------------------------------------------------------------------------------------------------------------------------------------------------------------------------
# [T: 445 ] || OP: JUMP 01E  || ZERO: 0 || CARRY: 1 || SHIFT_BIT: 0 || SHIFT_OP: SA || REG_DATA: ff || ADD_SUB: ff || OP1: 00 || OP2: 01 || SCR_WR_EN: 0 || RG_WR_EN: 0 || WR_SRB: 0 || ZR_CR_WR_EN: 1 0
# ---------------------------------------------------------------------------------------------------------------------------------------------------------------------------------
# [T: 455 ] || OP: LOAD sB,05  || ZERO: 0 || CARRY: 0 || SHIFT_BIT: 0 || SHIFT_OP: SC || REG_DATA: 1e || ADD_SUB: xx || OP1: xx || OP2: 1e || SCR_WR_EN: 0 || RG_WR_EN: 0 || WR_SRB: 0 || ZR_CR_WR_EN: 0 0
# [T: 465 ] || OP: LOAD sB,05  || ZERO: 0 || CARRY: 0 || SHIFT_BIT: x || SHIFT_OP: RR_SLX || REG_DATA: 5 || ADD_SUB: xx || OP1: xx || OP2: 05 || SCR_WR_EN: 0 || RG_WR_EN: 1 || WR_SRB: 0 || ZR_CR_WR_EN: 0 0
# ---------------------------------------------------------------------------------------------------------------------------------------------------------------------------------
# [T: 475 ] || OP: TEST sB,04  || ZERO: 0 || CARRY: 0 || SHIFT_BIT: 1 || SHIFT_OP: RR_SLX || REG_DATA: 5 || ADD_SUB: 0a || OP1: 05 || OP2: 05 || SCR_WR_EN: 0 || RG_WR_EN: 1 || WR_SRB: 0 || ZR_CR_WR_EN: 0 0
# ---------------------------------------------------------------------------------------------------------------------------------------------------------------------------------
# [T: 485 ] || OP: JUMP 021  || ZERO: 0 || CARRY: 1 || SHIFT_BIT: 1 || SHIFT_OP: RR_SLX || REG_DATA: 4 || ADD_SUB: 09 || OP1: 05 || OP2: 04 || SCR_WR_EN: 0 || RG_WR_EN: 0 || WR_SRB: 0 || ZR_CR_WR_EN: 1 0
# ---------------------------------------------------------------------------------------------------------------------------------------------------------------------------------
# [T: 495 ] || OP: TEST s0,FF  || ZERO: 0 || CARRY: 0 || SHIFT_BIT: 1 || SHIFT_OP: SA || REG_DATA: 21 || ADD_SUB: xx || OP1: xx || OP2: 21 || SCR_WR_EN: 0 || RG_WR_EN: 0 || WR_SRB: 0 || ZR_CR_WR_EN: 0 0
# [T: 505 ] || OP: TEST s0,FF  || ZERO: 0 || CARRY: x || SHIFT_BIT: 1 || SHIFT_OP: SC || REG_DATA: x || ADD_SUB: xx || OP1: xx || OP2: ff || SCR_WR_EN: 0 || RG_WR_EN: 0 || WR_SRB: 0 || ZR_CR_WR_EN: 1 0
# ---------------------------------------------------------------------------------------------------------------------------------------------------------------------------------
# [T: 515 ] || OP: JUMP 023  || ZERO: x || CARRY: x || SHIFT_BIT: 1 || SHIFT_OP: SC || REG_DATA: x || ADD_SUB: xx || OP1: xx || OP2: ff || SCR_WR_EN: 0 || RG_WR_EN: 0 || WR_SRB: 0 || ZR_CR_WR_EN: 1 0
# ---------------------------------------------------------------------------------------------------------------------------------------------------------------------------------
# [T: 525 ] || OP: LOAD sC,00  || ZERO: x || CARRY: 0 || SHIFT_BIT: x || SHIFT_OP: RL_SRX || REG_DATA: 23 || ADD_SUB: xx || OP1: xx || OP2: 23 || SCR_WR_EN: 0 || RG_WR_EN: 0 || WR_SRB: 0 || ZR_CR_WR_EN: 0 0
# [T: 535 ] || OP: LOAD sC,00  || ZERO: x || CARRY: 0 || SHIFT_BIT: x || SHIFT_OP: SA || REG_DATA: 0 || ADD_SUB: xx || OP1: xx || OP2: 00 || SCR_WR_EN: 0 || RG_WR_EN: 1 || WR_SRB: 0 || ZR_CR_WR_EN: 0 0
# ---------------------------------------------------------------------------------------------------------------------------------------------------------------------------------
# [T: 545 ] || OP: COMPARE sC,00  || ZERO: x || CARRY: 0 || SHIFT_BIT: x || SHIFT_OP: SA || REG_DATA: 0 || ADD_SUB: 00 || OP1: 00 || OP2: 00 || SCR_WR_EN: 0 || RG_WR_EN: 1 || WR_SRB: 0 || ZR_CR_WR_EN: 0 0
# ---------------------------------------------------------------------------------------------------------------------------------------------------------------------------------
# [T: 555 ] || OP: LOAD s0,s0  || ZERO: x || CARRY: 0 || SHIFT_BIT: x || SHIFT_OP: SA || REG_DATA: 0 || ADD_SUB: 00 || OP1: 00 || OP2: 00 || SCR_WR_EN: 0 || RG_WR_EN: 0 || WR_SRB: 0 || ZR_CR_WR_EN: 1 0
# ---------------------------------------------------------------------------------------------------------------------------------------------------------------------------------
# [T: 565 ] || OP: COMPARE sC,01  || ZERO: 1 || CARRY: 0 || SHIFT_BIT: 0 || SHIFT_OP: SA || REG_DATA: x || ADD_SUB: xx || OP1: xx || OP2: xx || SCR_WR_EN: 0 || RG_WR_EN: 1 || WR_SRB: 0 || ZR_CR_WR_EN: 0 0
# ---------------------------------------------------------------------------------------------------------------------------------------------------------------------------------
# [T: 575 ] || OP: JUMP 028  || ZERO: 1 || CARRY: 1 || SHIFT_BIT: 0 || SHIFT_OP: SA || REG_DATA: ff || ADD_SUB: ff || OP1: 00 || OP2: 01 || SCR_WR_EN: 0 || RG_WR_EN: 0 || WR_SRB: 0 || ZR_CR_WR_EN: 1 0
# ---------------------------------------------------------------------------------------------------------------------------------------------------------------------------------
# [T: 585 ] || OP: LOAD s8,FF  || ZERO: 0 || CARRY: 0 || SHIFT_BIT: 1 || SHIFT_OP: SA || REG_DATA: 28 || ADD_SUB: xx || OP1: xx || OP2: 28 || SCR_WR_EN: 0 || RG_WR_EN: 0 || WR_SRB: 0 || ZR_CR_WR_EN: 0 0
# [T: 595 ] || OP: LOAD s8,FF  || ZERO: 0 || CARRY: 0 || SHIFT_BIT: 1 || SHIFT_OP: SC || REG_DATA: ff || ADD_SUB: xx || OP1: xx || OP2: ff || SCR_WR_EN: 0 || RG_WR_EN: 1 || WR_SRB: 0 || ZR_CR_WR_EN: 0 0
# ---------------------------------------------------------------------------------------------------------------------------------------------------------------------------------
# [T: 605 ] || OP: SL0 s8  || ZERO: 0 || CARRY: 0 || SHIFT_BIT: 1 || SHIFT_OP: SC || REG_DATA: ff || ADD_SUB: fe || OP1: ff || OP2: ff || SCR_WR_EN: 0 || RG_WR_EN: 1 || WR_SRB: 0 || ZR_CR_WR_EN: 0 0
# ---------------------------------------------------------------------------------------------------------------------------------------------------------------------------------
# [T: 615 ] || OP: JUMP 02B  || ZERO: 0 || CARRY: 1 || SHIFT_BIT: 0 || SHIFT_OP: SC || REG_DATA: fe || ADD_SUB: 05 || OP1: ff || OP2: 06 || SCR_WR_EN: 0 || RG_WR_EN: 1 || WR_SRB: 0 || ZR_CR_WR_EN: 1 0
# ---------------------------------------------------------------------------------------------------------------------------------------------------------------------------------
# [T: 625 ] || OP: LOAD s9,FF  || ZERO: 0 || CARRY: 0 || SHIFT_BIT: x || SHIFT_OP: RL_SRX || REG_DATA: 2b || ADD_SUB: xx || OP1: xx || OP2: 2b || SCR_WR_EN: 0 || RG_WR_EN: 0 || WR_SRB: 0 || ZR_CR_WR_EN: 0 0
# [T: 635 ] || OP: LOAD s9,FF  || ZERO: 0 || CARRY: 0 || SHIFT_BIT: 1 || SHIFT_OP: SC || REG_DATA: ff || ADD_SUB: xx || OP1: xx || OP2: ff || SCR_WR_EN: 0 || RG_WR_EN: 1 || WR_SRB: 0 || ZR_CR_WR_EN: 0 0
# ---------------------------------------------------------------------------------------------------------------------------------------------------------------------------------
# [T: 645 ] || OP: SL1 s9  || ZERO: 0 || CARRY: 0 || SHIFT_BIT: 1 || SHIFT_OP: SC || REG_DATA: ff || ADD_SUB: fe || OP1: ff || OP2: ff || SCR_WR_EN: 0 || RG_WR_EN: 1 || WR_SRB: 0 || ZR_CR_WR_EN: 0 0
# ---------------------------------------------------------------------------------------------------------------------------------------------------------------------------------
# [T: 655 ] || OP: JUMP 02E  || ZERO: 0 || CARRY: 1 || SHIFT_BIT: 1 || SHIFT_OP: SC || REG_DATA: ff || ADD_SUB: 06 || OP1: ff || OP2: 07 || SCR_WR_EN: 0 || RG_WR_EN: 1 || WR_SRB: 0 || ZR_CR_WR_EN: 1 0
# ---------------------------------------------------------------------------------------------------------------------------------------------------------------------------------
# [T: 665 ] || OP: LOAD s9,01  || ZERO: 0 || CARRY: 0 || SHIFT_BIT: 0 || SHIFT_OP: SC || REG_DATA: 2e || ADD_SUB: xx || OP1: xx || OP2: 2e || SCR_WR_EN: 0 || RG_WR_EN: 0 || WR_SRB: 0 || ZR_CR_WR_EN: 0 0
# [T: 675 ] || OP: LOAD s9,01  || ZERO: 0 || CARRY: 0 || SHIFT_BIT: 1 || SHIFT_OP: SA || REG_DATA: 1 || ADD_SUB: 00 || OP1: ff || OP2: 01 || SCR_WR_EN: 0 || RG_WR_EN: 1 || WR_SRB: 0 || ZR_CR_WR_EN: 0 0
# ---------------------------------------------------------------------------------------------------------------------------------------------------------------------------------
# [T: 685 ] || OP: SR1 s9  || ZERO: 0 || CARRY: 0 || SHIFT_BIT: 1 || SHIFT_OP: SA || REG_DATA: 1 || ADD_SUB: 02 || OP1: 01 || OP2: 01 || SCR_WR_EN: 0 || RG_WR_EN: 1 || WR_SRB: 0 || ZR_CR_WR_EN: 0 0
# ---------------------------------------------------------------------------------------------------------------------------------------------------------------------------------
# [T: 695 ] || OP: JUMP 031  || ZERO: 0 || CARRY: 1 || SHIFT_BIT: 1 || SHIFT_OP: SC || REG_DATA: 80 || ADD_SUB: 10 || OP1: 01 || OP2: 0f || SCR_WR_EN: 0 || RG_WR_EN: 1 || WR_SRB: 0 || ZR_CR_WR_EN: 1 0
# ---------------------------------------------------------------------------------------------------------------------------------------------------------------------------------
# [T: 705 ] || OP: LOAD sD,FF  || ZERO: 0 || CARRY: 0 || SHIFT_BIT: 1 || SHIFT_OP: SA || REG_DATA: 31 || ADD_SUB: xx || OP1: xx || OP2: 31 || SCR_WR_EN: 0 || RG_WR_EN: 0 || WR_SRB: 0 || ZR_CR_WR_EN: 0 0
# [T: 715 ] || OP: LOAD sD,FF  || ZERO: 0 || CARRY: 0 || SHIFT_BIT: 1 || SHIFT_OP: SC || REG_DATA: ff || ADD_SUB: xx || OP1: xx || OP2: ff || SCR_WR_EN: 0 || RG_WR_EN: 1 || WR_SRB: 0 || ZR_CR_WR_EN: 0 0
# ---------------------------------------------------------------------------------------------------------------------------------------------------------------------------------
# [T: 725 ] || OP: RL sD  || ZERO: 0 || CARRY: 0 || SHIFT_BIT: 1 || SHIFT_OP: SC || REG_DATA: ff || ADD_SUB: fe || OP1: ff || OP2: ff || SCR_WR_EN: 0 || RG_WR_EN: 1 || WR_SRB: 0 || ZR_CR_WR_EN: 0 0
# ---------------------------------------------------------------------------------------------------------------------------------------------------------------------------------
# [T: 735 ] || OP: JUMP 034  || ZERO: 0 || CARRY: 1 || SHIFT_BIT: 1 || SHIFT_OP: RL_SRX || REG_DATA: ff || ADD_SUB: 01 || OP1: ff || OP2: 02 || SCR_WR_EN: 0 || RG_WR_EN: 1 || WR_SRB: 0 || ZR_CR_WR_EN: 1 0
# ---------------------------------------------------------------------------------------------------------------------------------------------------------------------------------
# [T: 745 ] || OP: LOAD sD,FF  || ZERO: 0 || CARRY: 0 || SHIFT_BIT: x || SHIFT_OP: RR_SLX || REG_DATA: 34 || ADD_SUB: xx || OP1: xx || OP2: 34 || SCR_WR_EN: 0 || RG_WR_EN: 0 || WR_SRB: 0 || ZR_CR_WR_EN: 0 0
# [T: 755 ] || OP: LOAD sD,FF  || ZERO: 0 || CARRY: 0 || SHIFT_BIT: 1 || SHIFT_OP: SC || REG_DATA: ff || ADD_SUB: fe || OP1: ff || OP2: ff || SCR_WR_EN: 0 || RG_WR_EN: 1 || WR_SRB: 0 || ZR_CR_WR_EN: 0 0
# ---------------------------------------------------------------------------------------------------------------------------------------------------------------------------------
# [T: 765 ] || OP: RR sD  || ZERO: 0 || CARRY: 0 || SHIFT_BIT: 1 || SHIFT_OP: SC || REG_DATA: ff || ADD_SUB: fe || OP1: ff || OP2: ff || SCR_WR_EN: 0 || RG_WR_EN: 1 || WR_SRB: 0 || ZR_CR_WR_EN: 0 0
# ---------------------------------------------------------------------------------------------------------------------------------------------------------------------------------
# [T: 775 ] || OP: JUMP 037  || ZERO: 0 || CARRY: 1 || SHIFT_BIT: 1 || SHIFT_OP: RR_SLX || REG_DATA: ff || ADD_SUB: 0b || OP1: ff || OP2: 0c || SCR_WR_EN: 0 || RG_WR_EN: 1 || WR_SRB: 0 || ZR_CR_WR_EN: 1 0
# ---------------------------------------------------------------------------------------------------------------------------------------------------------------------------------
